{
  "name": "cns-icons",
  "css_prefix_text": "icon-",
  "css_use_suffix": false,
  "hinting": true,
  "units_per_em": 1000,
  "ascent": 850,
  "glyphs": [
    {
      "uid": "t6cy82vd3t5piy0j3uknrlrzpg1ld8y3",
      "css": "search",
      "code": 59392,
      "src": "typicons"
    },
    {
      "uid": "lu2wqmd7v9zp21knhy4eifo41wjp4cnx",
      "css": "th-list",
      "code": 59398,
      "src": "typicons"
    },
    {
      "uid": "w3nzesrlbezu6f30q7ytyq919p6gdlb6",
      "css": "home",
      "code": 59401,
      "src": "typicons"
    },
    {
      "uid": "jqzwo6i8oicjbn049sh2856d8anrqoli",
      "css": "edit",
      "code": 59397,
      "src": "typicons"
    },
    {
      "uid": "13289e807e02b1d46f2fe10d81d6fba6",
      "css": "location-outline",
      "code": 59396,
      "src": "typicons"
    },
    {
      "uid": "3d211fe82ca138fce185f8869d38df26",
      "css": "calendar-outlilne",
      "code": 59395,
      "src": "typicons"
    },
    {
      "uid": "ca1c07c0df52dbf2af6813c9e36c2611",
      "css": "popup",
      "code": 59393,
      "src": "typicons"
    },
    {
      "uid": "d4ebe676479ff9cb41c7797f003aa54d",
      "css": "left-open-outline",
      "code": 59399,
      "src": "typicons"
    },
    {
      "uid": "813cb2527308990d4870591d9d76f8cd",
      "css": "right-open-outline",
      "code": 59400,
      "src": "typicons"
    },
    {
      "uid": "1a27e6346cdf0480c9c22351378bebbb",
      "css": "clipboard",
      "code": 59394,
      "src": "typicons"
    }
  ]
}